<?xml version="1.0" encoding="UTF-8" standalone="no"?>
<svg
   xmlns:dc="http://purl.org/dc/elements/1.1/"
   xmlns:cc="http://creativecommons.org/ns#"
   xmlns:rdf="http://www.w3.org/1999/02/22-rdf-syntax-ns#"
   xmlns:svg="http://www.w3.org/2000/svg"
   xmlns="http://www.w3.org/2000/svg"
   xmlns:sodipodi="http://sodipodi.sourceforge.net/DTD/sodipodi-0.dtd"
   xmlns:inkscape="http://www.inkscape.org/namespaces/inkscape"
   height="100%"
   style="fill-rule:evenodd;clip-rule:evenodd;stroke-linejoin:round;stroke-miterlimit:2;"
   version="1.1"
   viewBox="0 0 600 600"
   width="100%"
   xml:space="preserve"
   id="svg10"
   sodipodi:docname="instagram.svg"
   inkscape:version="1.0.1 (3bc2e813f5, 2020-09-07)"><metadata
     id="metadata16"><rdf:RDF><cc:Work
         rdf:about=""><dc:format>image/svg+xml</dc:format><dc:type
           rdf:resource="http://purl.org/dc/dcmitype/StillImage" /></cc:Work></rdf:RDF></metadata><defs
     id="defs14" /><sodipodi:namedview
     pagecolor="#ffffff"
     bordercolor="#666666"
     borderopacity="1"
     objecttolerance="10"
     gridtolerance="10"
     guidetolerance="10"
     inkscape:pageopacity="0"
     inkscape:pageshadow="2"
     inkscape:window-width="1920"
     inkscape:window-height="1036"
     id="namedview12"
     showgrid="false"
     inkscape:zoom="1.4333333"
     inkscape:cx="300"
     inkscape:cy="300"
     inkscape:window-x="1280"
     inkscape:window-y="27"
     inkscape:window-maximized="1"
     inkscape:current-layer="svg10" /><g
     transform="matrix(1.01619,0,0,1.01619,44,43.8384)"
     id="g8"
     style="stroke-width:0.99981303;stroke-miterlimit:4;stroke-dasharray:none;fill:#4a4a4a;fill-opacity:1"><path
       d="m 251.921,0.159 c -68.418,0 -76.997,0.29 -103.867,1.516 C 121.24,2.899 102.927,7.157 86.902,13.385 70.336,19.823 56.287,28.437 42.282,42.442 28.277,56.447 19.663,70.496 13.225,87.062 6.997,103.086 2.739,121.399 1.515,148.213 0.289,175.083 0,183.662 0,252.08 c 0,68.417 0.289,76.996 1.515,103.866 1.224,26.814 5.482,45.127 11.71,61.151 6.438,16.566 15.052,30.615 29.057,44.621 14.005,14.005 28.054,22.619 44.62,29.057 16.025,6.227 34.338,10.486 61.152,11.709 26.87,1.226 35.449,1.516 103.867,1.516 68.417,0 76.996,-0.29 103.866,-1.516 26.814,-1.223 45.127,-5.482 61.151,-11.709 16.566,-6.438 30.615,-15.052 44.621,-29.057 14.005,-14.006 22.619,-28.055 29.057,-44.621 6.227,-16.024 10.486,-34.337 11.709,-61.151 1.226,-26.87 1.516,-35.449 1.516,-103.866 0,-68.418 -0.29,-76.997 -1.516,-103.867 -1.223,-26.814 -5.482,-45.127 -11.709,-61.151 C 484.178,70.496 475.564,56.447 461.559,42.442 447.553,28.437 433.504,19.823 416.938,13.385 400.914,7.157 382.601,2.899 355.787,1.675 328.917,0.449 320.338,0.159 251.921,0.159 Z m 0,45.392 c 67.265,0 75.233,0.256 101.797,1.468 24.562,1.121 37.901,5.225 46.778,8.674 11.759,4.57 20.151,10.03 28.966,18.845 8.816,8.815 14.275,17.208 18.845,28.966 3.45,8.877 7.554,22.216 8.674,46.778 1.212,26.564 1.469,34.532 1.469,101.798 0,67.265 -0.257,75.233 -1.469,101.797 -1.12,24.562 -5.224,37.901 -8.674,46.778 -4.57,11.759 -10.029,20.151 -18.845,28.966 -8.815,8.816 -17.207,14.275 -28.966,18.845 -8.877,3.45 -22.216,7.554 -46.778,8.674 -26.56,1.212 -34.527,1.469 -101.797,1.469 -67.271,0 -75.237,-0.257 -101.798,-1.469 -24.562,-1.12 -37.901,-5.224 -46.778,-8.674 -11.759,-4.57 -20.151,-10.029 -28.967,-18.845 -8.815,-8.815 -14.275,-17.207 -18.844,-28.966 -3.45,-8.877 -7.554,-22.216 -8.675,-46.778 -1.212,-26.564 -1.468,-34.532 -1.468,-101.797 0,-67.266 0.256,-75.234 1.468,-101.798 1.121,-24.562 5.225,-37.901 8.675,-46.778 4.569,-11.758 10.029,-20.151 18.844,-28.966 8.816,-8.815 17.208,-14.275 28.967,-18.845 8.877,-3.449 22.216,-7.553 46.778,-8.674 26.564,-1.212 34.532,-1.468 101.798,-1.468 z"
       style="fill-rule:nonzero;stroke-width:0.99981303;stroke-miterlimit:4;stroke-dasharray:none;fill:#4a4a4a;fill-opacity:1"
       id="path2" /><path
       d="m 251.921,336.053 c -46.378,0 -83.974,-37.596 -83.974,-83.973 0,-46.378 37.596,-83.974 83.974,-83.974 46.377,0 83.973,37.596 83.973,83.974 0,46.377 -37.596,83.973 -83.973,83.973 z m 0,-213.338 c -71.447,0 -129.365,57.918 -129.365,129.365 0,71.446 57.918,129.364 129.365,129.364 71.446,0 129.364,-57.918 129.364,-129.364 0,-71.447 -57.918,-129.365 -129.364,-129.365 z"
       style="fill:#4a4a4a;fill-rule:nonzero;stroke-width:0.99981303;stroke-miterlimit:4;stroke-dasharray:none;fill-opacity:1"
       id="path4" /><path
       d="m 416.627,117.604 c 0,16.696 -13.535,30.23 -30.231,30.23 -16.695,0 -30.23,-13.534 -30.23,-30.23 0,-16.696 13.535,-30.23 30.23,-30.23 16.696,0 30.231,13.534 30.231,30.23 z"
       style="fill:#4a4a4a;fill-rule:nonzero;stroke-width:0.99981303;stroke-miterlimit:4;stroke-dasharray:none;fill-opacity:1"
       id="path6" /></g></svg>
